…
``` r
# type your code for Question 8 here, and Knit
nycflights <- nycflights %>%
     mutate(avg_speed = distance/(air_time/60))
nycflights%>%
     select(avg_speed, tailnum) %>%
     arrange(desc(avg_speed))
```

    ## # A tibble: 32,735 x 2
    ##    avg_speed tailnum
    ##        <dbl> <chr>  
    ##  1       703 N666DN 
    ##  2       557 N779JB 
    ##  3       554 N571JB 
    ##  4       548 N568JB 
    ##  5       548 N5EHAA 
    ##  6       548 N656JB 
    ##  7       545 N789JB 
    ##  8       539 N516JB 
    ##  9       536 N648JB 
    ## 10       536 N510JB 
    ## # ... with 32,725 more rows
…
